<svg xmlns="http://www.w3.org/2000/svg" xmlns:xlink="http://www.w3.org/1999/xlink" viewBox="0 0 18 25" class="puzzlemat puzzlemat-rhombus">
    <link xmlns="http://www.w3.org/1999/xhtml" rel="stylesheet" href="online_calendar_puzzle.css" type="text/css"/>
    <g class="puzzleboard">
        <path class="puzzlefloor" d="M4,1 h10 a3,3,0,0,1,3,3 v6 a3,3,0,0,1,-3,3 h-10 a3,3,0,0,1,-3,-3 v-6 a3,3,0,0,1,3,-3 Z"/>
        <path class="puzzleframe" d="M6,2 l1,1 l1,-1 l1,1 l1,-1 l1,1 l1,-1 l4,4 l-1,1 l1,1 l-4,4 l-1,-1 l-1,1 l-1,-1 l-1,1 l-1,-1 l-1,1 l-4,-4 l1,-1 l-1,-1 l4,-4 Z"/>
        <g class="engraving">
            <g class="weekdays">
                <text x="3" y="6.2" class="translate" id="wkday[1]">ma</text>
                <text x="3" y="8.2" class="translate" id="wkday[2]">di</text>
                <text x="4" y="5.2" class="translate" id="wkday[3]">wo</text>
                <text x="4" y="7.2" class="translate" id="wkday[4]">do</text>
                <text x="4" y="9.2" class="translate" id="wkday[5]">vr</text>
                <text x="5" y="6.2" class="translate" id="wkday[6]">za</text>
                <text x="5" y="8.2" class="translate" id="wkday[0]">zo</text>
            </g>
            <g class="days">
                <text x="6" y="3.2">1</text>
                <text x="8" y="3.2">2</text>
                <text x="10" y="3.2">3</text>
                <text x="12" y="3.2">4</text>
                <text x="5" y="4.2">5</text>
                <text x="7" y="4.2">6</text>
                <text x="9" y="4.2">7</text>
                <text x="11" y="4.2">8</text>
                <text x="13" y="4.2">9</text>
                <text x="6" y="5.2">10</text>
                <text x="8" y="5.2">11</text>
                <text x="10" y="5.2">12</text>
                <text x="7" y="6.2">13</text>
                <text x="9" y="6.2">14</text>
                <text x="6" y="7.2">15</text>
                <text x="8" y="7.2">16</text>
                <text x="10" y="7.2">17</text>
                <text x="7" y="8.2">18</text>
                <text x="9" y="8.2">19</text>
                <text x="6" y="9.2">20</text>
                <text x="8" y="9.2">21</text>
                <text x="10" y="9.2">22</text>
                <text x="5" y="10.2">23</text>
                <text x="7" y="10.2">24</text>
                <text x="9" y="10.2">25</text>
                <text x="11" y="10.2">26</text>
                <text x="13" y="10.2">27</text>
                <text x="6" y="11.2">28</text>
                <text x="8" y="11.2">29</text>
                <text x="10" y="11.2">30</text>
                <text x="12" y="11.2">31</text>
            </g>
            <g class="months">
                <text x="11" y="6.2" class="translate" id="mnth[0]">jan</text>
                <text x="11" y="8.2" class="translate" id="mnth[1]">feb</text>
                <text x="12" y="5.2" class="translate" id="mnth[2]">mrt</text>
                <text x="12" y="7.2" class="translate" id="mnth[3]">apr</text>
                <text x="12" y="9.2" class="translate" id="mnth[4]">mei</text>
                <text x="13" y="6.2" class="translate" id="mnth[5]">jun</text>
                <text x="13" y="8.2" class="translate" id="mnth[6]">jul</text>
                <text x="14" y="5.2" class="translate" id="mnth[7]">aug</text>
                <text x="14" y="7.2" class="translate" id="mnth[8]">sep</text>
                <text x="14" y="9.2" class="translate" id="mnth[9]">okt</text>
                <text x="15" y="6.2" class="translate" id="mnth[10]">nov</text>
                <text x="15" y="8.2" class="translate" id="mnth[11]">dec</text>
            </g>
            <g class="url">
                <text x="3" y="17.5" class="translate" id="url" transform="rotate(-45)">peterspuzzels.nl</text>
            </g>
        </g>
    </g>
    <defs>
        <g id="piece-N">
            <path class="invisible" d="M0,0 L6,6"/>
            <path d="M5,0 l1,1 l-3,3 l-1,-1 l-1,1 l-1,-1 l2,-2 l1,1 l2,-2 Z"/>
        </g>
        <g id="piece-P">
            <path class="invisible" d="M0,0 L6,6"/>
            <path d="M3,0 m3,3 l-1,1 l-1,-1 l-1,1 l-2,-2 l2,-2 Z"/>
        </g>
        <g id="piece-V">
            <path class="invisible" d="M0,0 L6,6"/>
            <path d="M3,0 l1,1 l-2,2 l2,2 l-1,1 l-3,-3 l3,-3 Z"/>
        </g>
        <g id="piece-X">
            <path class="invisible" d="M0,0 L4,4"/>
            <path d="M1,0 l1,1 l1,-1 l1,1 l-1,1, l1,1, l-1,1 l-1,-1 l-1,1 l-1,-1 l1,-1 l-1,-1 l1,-1 Z"/>
        </g>
        <g id="piece-n">
            <path class="invisible" d="M0,0 L6,6"/>
            <path d="M4,1 l1,1 l-2,2 l-1,-1 l-1,1 l-1,-1 l2,-2 l1,1 l1,-1 Z"/>
        </g>
        <g id="piece-U">
            <path class="invisible" d="M0,0 L6,6"/>
            <path d="M3,0 l2,2 l-1,1 l-1,-1 l-1,1 l1,1 l-1,1 l-2,-2 l3,-3 Z"/>
        </g>
        <g id="piece-W">
            <path class="invisible" d="M0,0 L6,6"/>
            <path d="M3,0 l2,2 l-1,1 l1,1 l-2,2 l-1,-1 l1,-1 l-1,-1 l1,-1 l-1,-1 l1,-1 Z"/>
        </g>
        <g id="piece-y">
            <path class="invisible" d="M0,0 L4,4"/>
            <path d="M3,0 l1,1 l-1,1 l1,1 l-1,1 l-1,-1 l-1,1 l-1,-1 l3,-3 Z"/>
        </g>
        <g id="piece-l">
            <path class="invisible" d="M0,0 L6,6"/>
            <path d="M3,0 l1,1 l-2,2 l1,1 l-1,1 l-2,-2 l3,-3 Z"/>
        </g>
        <g id="piece-F">
            <path class="invisible" d="M0,0 L6,6"/>
            <path d="M3,0 l2,2 l-1,1 l1,1 l-1,1 l-1,-1 l-1,1 l-1,-1 l2,-2 l-1,-1 l1,-1 Z"/>
        </g>
    </defs>
    <g class="pieces">
        <use x="9" y="14" href="#piece-P" class="piece"/>
        <use x="7" y="14" href="#piece-X" class="piece"/>
        <use x="3" y="14" href="#piece-n" class="piece"/>
        <use x="2" y="17" href="#piece-V" class="piece"/>
        <use x="4" y="17" href="#piece-U" class="piece"/>
        <use x="4" y="19" href="#piece-F" class="piece"/>
        <use x="6" y="17" href="#piece-W" class="piece"/>
        <use x="10" y="17" href="#piece-l" class="piece"/>
        <use x="12" y="17" href="#piece-y" class="piece"/>
        <use x="9" y="20" href="#piece-N" class="piece"/>
    </g>

    <script xlink:href="javascript_locale_dutch.js"/>
    <script xlink:href="javascript_locale_english.js"/>
    <script xlink:href="online_calendar_puzzle.js"/>
    <script xlink:href="online_calendar_puzzle_rhombus.js"/>
</svg>
