<svg xmlns="http://www.w3.org/2000/svg" xmlns:xlink="http://www.w3.org/1999/xlink" viewBox="0 0 79 34" class="puzzlemat">
    <link xmlns="http://www.w3.org/1999/xhtml" rel="stylesheet" href="online_calendar_puzzle.css" type="text/css"/>
    <defs>
        <path id="puzzlehole-1" class="puzzlehole-1" d="M2,0 h3 l2,2 v3 l-2,2 h-3 l-2,-2 v-3 l2,-2 Z"/>
        <path id="puzzlehole-2" class="puzzlehole-2" d="M2,0 h3 l2,2 v3 l-2,2 h-3 l-2,-2 v-3 l2,-2 Z"/>
        <g id="digit-odd">
            <use x="0" y="5" href="#puzzlehole-1"/>
            <use x="0" y="0" href="#puzzlehole-2"/>
        </g>
        <g id="digit-even">
            <use x="0" y="0" href="#puzzlehole-1"/>
            <use x="0" y="5" href="#puzzlehole-2"/>
        </g>
        <g id="digit-pair">
            <use x="0" y="0" href="#digit-odd"/>
            <use x="8" y="0" href="#digit-even"/>
        </g>
        <path id="horizontal-segment" class="segment" d="M0,0 l0.8,-0.8 h2.6 l0.8,0.8 l-0.8,0.8 h-2.6 l-0.8,-0.8 Z"/>
        <g id="vertical-segment">
            <use x="0" y="0" href="#horizontal-segment" transform="rotate(90)"/>
        </g>
        <path id="empty-piece" d="M2,0 h3 l2,2 v3 l-2,2 h-3 l-2,-2 v-3 l2,-2 Z"/>
        <g id="piece-1">
            <use x="0" y="0" href="#empty-piece"/>
            <use x="1.4" y="1.1" href="#horizontal-segment"/>
        </g>
        <g id="piece-2">
            <use x="0" y="0" href="#empty-piece"/>
            <use x="1.4" y="1.1" href="#horizontal-segment"/>
            <use x="5.9" y="1.4" href="#vertical-segment"/>
        </g>
        <g id="piece-3">
            <use x="0" y="0" href="#empty-piece"/>
            <use x="1.4" y="1.1" href="#horizontal-segment"/>
            <use x="5.9" y="1.4" href="#vertical-segment"/>
            <use x="1.1" y="1.4" href="#vertical-segment"/>
        </g>
        <g id="piece-4">
            <use x="0" y="0" href="#empty-piece"/>
            <use x="1.4" y="1.1" href="#horizontal-segment"/>
            <use x="5.9" y="1.4" href="#vertical-segment"/>
            <use x="1.4" y="5.9" href="#horizontal-segment"/>
            <use x="1.1" y="1.4" href="#vertical-segment"/>
        </g>
    </defs>
    <g class="puzzleboard">
        <path class="puzzlefloor" d="M4,2 h71 a2,2,0,0,1,2,2 v10 a2,2,0,0,1,-2,2 h-71 a2,2,0,0,1,-2,-2 v-10 a2,2,0,0,1,2,-2 Z"/>
        <g id="puzzleholes">
            <use x="3" y="3" href="#digit-pair"/>
            <use x="18.8" y="9" href="#horizontal-segment"/>
            <use x="24" y="3" href="#digit-pair"/>
            <use x="39.8" y="9" href="#horizontal-segment"/>
            <use x="45" y="3" href="#digit-pair"/>
            <use x="61" y="3" href="#digit-pair"/>
        </g>
    </g>
    <g class="pieces">
        <use x="08" y="17" href="#piece-3" data-flipped="#piece-1" class="piece"/>
        <use x="16" y="17" href="#piece-3" data-flipped="#piece-1" class="piece"/>
        <use x="24" y="17" href="#piece-3" data-flipped="#piece-1" class="piece"/>
        <use x="32" y="17" href="#piece-3" data-flipped="#piece-1" class="piece"/>
        <use x="40" y="17" href="#piece-3" data-flipped="#piece-1" class="piece"/>
        <use x="48" y="17" href="#piece-3" data-flipped="#piece-1" class="piece"/>
        <use x="56" y="17" href="#piece-3" data-flipped="#piece-1" class="piece"/>
        <use x="64" y="17" href="#piece-3" data-flipped="#piece-1" class="piece"/>
        <use x="08" y="25" href="#piece-3" data-flipped="#piece-1" class="piece"/>
        <use x="16" y="25" href="#piece-3" data-flipped="#piece-1" class="piece"/>
        <use x="24" y="25" href="#piece-3" data-flipped="#piece-1" class="piece"/>
        <use x="32" y="25" href="#piece-4" data-flipped="#piece-2" class="piece"/>
        <use x="40" y="25" href="#piece-4" data-flipped="#piece-2" class="piece"/>
        <use x="48" y="25" href="#piece-4" data-flipped="#piece-2" class="piece"/>
        <use x="56" y="25" href="#piece-4" data-flipped="#piece-2" class="piece"/>
        <use x="64" y="25" href="#piece-4" data-flipped="#piece-2" class="piece"/>
    </g>
    <script xlink:href="javascript_locale_dutch.js"/>
    <script xlink:href="javascript_locale_english.js"/>
    <script xlink:href="online_calendar_puzzle.js"/>
    <script xlink:href="online_calendar_puzzle_digital.js"/>
</svg>
