<svg xmlns="http://www.w3.org/2000/svg" xmlns:xlink="http://www.w3.org/1999/xlink" viewBox="0 0 14 15" class="puzzlemat puzzlemat-square">
    <link xmlns="http://www.w3.org/1999/xhtml" rel="stylesheet" href="online_calendar_puzzle.css" type="text/css"/>
    <g class="puzzleboard">
        <path class="puzzlefloor" d="M1.5,1 h11 a0.5,0.5,0,0,1,0.5,0.5 v6 a0.5,0.5,0,0,1,-0.5,0.5 h-11 a0.5,0.5,0,0,1,-0.5,-0.5 v-6 a0.5,0.5,0,0,1,0.5,-0.5 Z"/>
        <path class="puzzleframe" d="M2,2 h10 v5 h-10 v-5 Z"/>
        <g class="engraving">
            <g class="weekdays">
                <text x="2.5" y="2.65" class="translate" id="wkday[1]">ma</text>
                <text x="3.5" y="2.65" class="translate" id="wkday[2]">di</text>
                <text x="4.5" y="2.65" class="translate" id="wkday[3]">wo</text>
                <text x="5.5" y="2.65" class="translate" id="wkday[4]">do</text>
                <text x="2.5" y="3.65" class="translate" id="wkday[5]">vr</text>
                <text x="3.5" y="3.65" class="translate" id="wkday[6]">za</text>
                <text x="4.5" y="3.65" class="translate" id="wkday[0]">zo</text>
            </g>
            <g class="days">
                <text x="6.5" y="2.7">1</text>
                <text x="7.5" y="2.7">2</text>
                <text x="8.5" y="2.7">3</text>
                <text x="9.5" y="2.7">4</text>
                <text x="10.5" y="2.7">5</text>
                <text x="11.5" y="2.7">6</text>
                <text x="5.5" y="3.7">7</text>
                <text x="6.5" y="3.7">8</text>
                <text x="7.5" y="3.7">9</text>
                <text x="8.5" y="3.7">10</text>
                <text x="9.5" y="3.7">11</text>
                <text x="10.5" y="3.7">12</text>
                <text x="11.5" y="3.7">13</text>
                <text x="2.5" y="4.7">14</text>
                <text x="3.5" y="4.7">15</text>
                <text x="4.5" y="4.7">16</text>
                <text x="5.5" y="4.7">17</text>
                <text x="6.5" y="4.7">18</text>
                <text x="7.5" y="4.7">19</text>
                <text x="8.5" y="4.7">20</text>
                <text x="2.5" y="5.7">21</text>
                <text x="3.5" y="5.7">22</text>
                <text x="4.5" y="5.7">23</text>
                <text x="5.5" y="5.7">24</text>
                <text x="6.5" y="5.7">25</text>
                <text x="7.5" y="5.7">26</text>
                <text x="2.5" y="6.7">27</text>
                <text x="3.5" y="6.7">28</text>
                <text x="4.5" y="6.7">29</text>
                <text x="5.5" y="6.7">30</text>
                <text x="6.5" y="6.7">31</text>
            </g>
            <g class="months">
                <text x="9.5" y="4.65" class="translate" id="mnth[0]">jan</text>
                <text x="10.5" y="4.65" class="translate" id="mnth[1]">feb</text>
                <text x="11.5" y="4.65" class="translate" id="mnth[2]">mrt</text>
                <text x="8.5" y="5.65" class="translate" id="mnth[3]">apr</text>
                <text x="9.5" y="5.65" class="translate" id="mnth[4]">mei</text>
                <text x="10.5" y="5.65" class="translate" id="mnth[5]">jun</text>
                <text x="11.5" y="5.65" class="translate" id="mnth[6]">jul</text>
                <text x="7.5" y="6.65" class="translate" id="mnth[7]">aug</text>
                <text x="8.5" y="6.65" class="translate" id="mnth[8]">sep</text>
                <text x="9.5" y="6.65" class="translate" id="mnth[9]">okt</text>
                <text x="10.5" y="6.65" class="translate" id="mnth[10]">nov</text>
                <text x="11.5" y="6.65" class="translate" id="mnth[11]">dec</text>
            </g>
        </g>
    </g>
    <defs>
        <g id="piece-Y">
            <path class="invisible" d="M0,0 L5,5"/>
            <path d="M2,1 h1 v4 h-1 v-2 h-1 v-1 h1 v-1 Z"/>
        </g>
        <g id="piece-P">
            <path class="invisible" d="M0,0 L3,3"/>
            <path d="M0,0 h2 v2 h-1 v1 h-1 v-3 Z"/>
        </g>
        <g id="piece-V">
            <path class="invisible" d="M0,0 L3,3"/>
            <path d="M0,0 h1 v2 h2 v1 h-3 v-3 Z"/>
        </g>
        <g id="piece-X">
            <path class="invisible" d="M0,0 L3,3"/>
            <path d="M1,0 h1 v1 h1 v1 h-1 v1 h-1 v-1 h-1 v-1 h1 v-1 Z"/>
            <text x="1.5" y="1.6" class="url translate" id="url">peterspuzzels.nl</text>
        </g>
        <g id="piece-X-flipped">
            <path class="invisible" d="M0,0 L3,3"/>
            <path d="M1,0 h1 v1 h1 v1 h-1 v1 h-1 v-1 h-1 v-1 h1 v-1 Z"/>
        </g>
        <g id="piece-n">
            <path class="invisible" d="M0,0 L3,3"/>
            <path d="M0,1 h1 v-1 h2 v1 h-1 v1 h-2 v-1 Z"/>
        </g>
        <g id="piece-U">
            <path class="invisible" d="M0,0 L3,3"/>
            <path d="M1,0 h2 v3 h-2 v-1 h1 v-1 h-1 v-1 Z"/>
        </g>
        <g id="piece-W">
            <path class="invisible" d="M0,0 L3,3"/>
            <path d="M1,0 h2 v1 h-1 v1 h-1 v1 h-1 v-2 h1 v-1 Z"/>
        </g>
        <g id="piece-y">
            <path class="invisible" d="M0,0 L3,3"/>
            <path d="M1,0 h1 v3 h-1 v-1 h-1 v-1 h1 v-1 Z"/>
        </g>
        <g id="piece-l">
            <path class="invisible" d="M0,0 L3,3"/>
            <path d="M0,1 h1 v1 h2 v1 h-3 v-2 Z"/>
        </g>
        <g id="piece-F">
            <path class="invisible" d="M0,0 L3,3"/>
            <path d="M0,1 h1 v-1 h1 v1 h1 v2 h-1 v-1 h-2 v-1 Z"/>
        </g>
    </defs>
    <g class="pieces">
        <use x="1" y="8" href="#piece-Y" class="piece"/>
        <use x="4" y="9" href="#piece-P" class="piece"/>
        <use x="2" y="11" href="#piece-V" class="piece"/>
        <use x="4" y="11" href="#piece-X" class="piece" data-flipped="#piece-X-flipped"/>
        <use x="6" y="9" href="#piece-n" class="piece"/>
        <use x="5" y="11" href="#piece-U" class="piece"/>
        <use x="8" y="9" href="#piece-W" class="piece"/>
        <use x="10" y="9" href="#piece-y" class="piece"/>
        <use x="8" y="11" href="#piece-l" class="piece"/>
        <use x="9" y="11" href="#piece-F" class="piece"/>
    </g>
    <script xlink:href="javascript_locale_dutch.js"/>
    <script xlink:href="javascript_locale_english.js"/>
    <script xlink:href="online_calendar_puzzle.js"/>
    <script xlink:href="online_calendar_puzzle_square.js"/>
</svg>
